0.0 5.446000000000001e-12
-0.004200000000000001 3.431e-12
-0.0083 2.8560000000000004e-12
-0.0125 2.3559999999999997e-12
-0.0167 1.996e-12
-0.0209 1.7750000000000004e-12
-0.025 1.473e-12
-0.0292 1.2e-12
-0.0334 1.0310000000000002e-12
-0.0375 8.65e-13
-0.0417 6.55e-13
-0.0459 4.41e-13
-0.050100000000000006 3.4500000000000004e-13
-0.054200000000000005 1.76e-13
-0.0584 2.1e-14
-0.0626 1.1e-14
-0.06670000000000001 1.87e-13
-0.0709 2.72e-13
-0.0751 4.570000000000001e-13
-0.07930000000000001 4.970000000000001e-13
-0.0834 5.34e-13
-0.0876 7.31e-13
-0.0918 7.68e-13
-0.0959 8.690000000000001e-13
-0.1001 9.15e-13
-0.1043 9.3e-13
-0.1085 1.078e-12
-0.1126 1.143e-12
-0.1168 1.1270000000000001e-12
-0.121 1.203e-12
-0.12510000000000002 1.1960000000000002e-12
-0.1293 1.3590000000000002e-12
-0.1335 1.3840000000000002e-12
-0.13770000000000002 1.4559999999999999e-12
-0.1418 1.418e-12
-0.14600000000000002 1.5510000000000002e-12
-0.1502 1.5390000000000002e-12
-0.15430000000000002 1.5890000000000002e-12
-0.1585 1.6120000000000002e-12
-0.1627 1.6580000000000004e-12
-0.16690000000000002 1.698e-12
-0.171 1.7209999999999998e-12
-0.1752 1.8269999999999998e-12
-0.1794 1.7549999999999999e-12
-0.1835 1.8450000000000003e-12
-0.1877 1.817e-12
-0.1919 1.826e-12
-0.1961 1.8200000000000003e-12
-0.2002 1.9450000000000003e-12
-0.2044 1.861e-12
-0.2086 1.9969999999999997e-12
-0.2127 2.0709999999999996e-12
-0.2169 1.9880000000000004e-12
-0.2211 1.976e-12
-0.2253 2.0250000000000004e-12
-0.2294 2.1200000000000003e-12
-0.2336 2.067e-12
-0.2378 2.123e-12
-0.2419 2.057e-12
-0.2461 2.1540000000000003e-12
-0.2503 2.1519999999999997e-12
-0.2545 2.278e-12
-0.2586 2.1609999999999998e-12
-0.26280000000000003 2.206e-12
-0.267 2.222e-12
-0.2711 2.2830000000000003e-12
-0.2753 2.2430000000000004e-12
-0.2795 2.285e-12
-0.2837 2.3580000000000003e-12
-0.2878 2.2430000000000004e-12
-0.29200000000000004 2.39e-12
-0.2962 2.274e-12
-0.3003 2.3800000000000004e-12
-0.3045 2.369e-12
-0.30870000000000003 2.432e-12
-0.3129 2.366e-12
-0.317 2.393e-12
-0.32120000000000004 2.419e-12
-0.3254 2.5019999999999996e-12
-0.3295 2.387e-12
-0.3337 2.4720000000000004e-12
-0.33790000000000003 2.4859999999999997e-12
-0.3421 2.523e-12
-0.3462 2.448e-12
-0.3504 2.5840000000000003e-12
-0.3546 2.6220000000000003e-12
-0.3587 2.5980000000000004e-12
-0.3629 2.6260000000000003e-12
-0.3671 2.6760000000000003e-12
-0.3713 2.6600000000000004e-12
-0.3754 2.8110000000000004e-12
-0.3796 2.7590000000000003e-12
-0.3838 2.7510000000000003e-12
-0.3879 2.77e-12
-0.3921 2.8239999999999997e-12
-0.3963 2.883e-12
-0.4005 2.9150000000000004e-12
-0.4046 2.905e-12
-0.4088 3.001e-12
-0.413 2.9400000000000004e-12
-0.4171 2.9860000000000004e-12
-0.4213 3.047e-12
-0.4255 3.109e-12
-0.4297 3.1369999999999997e-12
-0.4338 3.1379999999999998e-12
-0.43799999999999994 3.2620000000000004e-12
-0.4422 3.133e-12
-0.4463 3.2539999999999993e-12
-0.4505 3.3089999999999997e-12
-0.4547000000000001 3.2150000000000003e-12
-0.4589 3.287000000000001e-12
-0.46299999999999997 3.362000000000001e-12
-0.4672 3.3570000000000007e-12
-0.4714 3.208e-12
-0.4755 3.2089999999999994e-12
-0.4797 2.93e-12
-0.4839 3.1490000000000004e-12
-0.4881 2.9900000000000004e-12
-0.4922 2.5300000000000003e-12
-0.4964 2.1509999999999996e-12
-0.5006 2.2460000000000003e-12
-0.5047 1.942e-12
-0.5089 1.6470000000000004e-12
-0.5131 8.25e-13
-0.5173 5.480000000000001e-13
-0.5214 9.2e-14
-0.5256000000000001 6.31e-13
-0.5298 1.2219999999999998e-12
-0.5339 2.103e-12
-0.5381 2.7180000000000003e-12
-0.5423 3.896e-12
-0.5465 4.9160000000000005e-12
-0.5506 5.962999999999999e-12
-0.5548000000000001 7.1699999999999995e-12
-0.5589999999999999 8.625000000000001e-12
-0.5631 1.1549e-11
-0.5673 1.3373e-11
-0.5715 1.5663e-11
-0.5757 1.6502000000000002e-11
-0.5798 1.9322e-11
-0.5840000000000001 2.2239000000000003e-11
-0.5882000000000001 2.6493000000000007e-11
-0.5923 3.0394e-11
-0.5965 3.5521999999999995e-11
-0.6007 4.0284e-11
-0.6049 4.6743000000000005e-11
-0.609 5.4522000000000013e-11
-0.6132000000000001 6.0708e-11
-0.6174000000000001 6.8267e-11
-0.6215 7.523699999999999e-11
-0.6257 8.704400000000001e-11
-0.6299 9.268999999999999e-11
-0.6341 1.10018e-10
-0.6382 1.1835799999999998e-10
-0.6424000000000001 1.3549600000000001e-10
-0.6466000000000001 1.4634400000000002e-10
-0.6507000000000001 1.7047800000000002e-10
-0.6549 1.96201e-10
-0.6591 2.21422e-10
-0.6633 2.5408200000000003e-10
-0.6674 2.7807500000000005e-10
-0.6716000000000001 3.1811700000000006e-10
-0.6758000000000001 3.5407500000000004e-10
-0.6799000000000001 3.63728e-10
-0.6841 4.08482e-10
-0.6883 4.823000000000001e-10
-0.6925 5.09615e-10
-0.6966 5.703100000000001e-10
-0.7008 6.289700000000001e-10
-0.7050000000000001 6.622810000000001e-10
-0.7091000000000001 7.44066e-10
-0.7133 8.587599999999999e-10
-0.7175 9.313510000000002e-10
-0.7217 9.83237e-10
-0.7258 1.103481e-09
-0.73 1.18582e-09
-0.73 1.10304e-09
-0.7258 9.869949999999999e-10
-0.7217 8.693669999999999e-10
-0.7175 7.98678e-10
-0.7133 7.35721e-10
-0.7091000000000001 6.562819999999999e-10
-0.7050000000000001 5.830990000000001e-10
-0.7008 5.438920000000001e-10
-0.6966 4.805640000000001e-10
-0.6925 4.31249e-10
-0.6883 3.83029e-10
-0.6841 3.38088e-10
-0.6799000000000001 3.1794000000000004e-10
-0.6758000000000001 2.76848e-10
-0.6716000000000001 2.5174400000000004e-10
-0.6674 2.2464599999999999e-10
-0.6633 2.09132e-10
-0.6591 1.85474e-10
-0.6549 1.6241899999999996e-10
-0.6507000000000001 1.4739300000000002e-10
-0.6466000000000001 1.30498e-10
-0.6424000000000001 1.15807e-10
-0.6382 1.04952e-10
-0.6341 9.583599999999999e-11
-0.6299 8.270399999999999e-11
-0.6257 7.255300000000001e-11
-0.6215 6.697200000000001e-11
-0.6174000000000001 6.101800000000001e-11
-0.6132000000000001 5.4009999999999996e-11
-0.609 4.8084000000000006e-11
-0.6049 4.1496e-11
-0.6007 3.9503999999999995e-11
-0.5965 3.5931999999999997e-11
-0.5923 3.3108000000000005e-11
-0.5882000000000001 2.8617000000000007e-11
-0.5840000000000001 2.5298e-11
-0.5798 2.2986e-11
-0.5757 2.2533e-11
-0.5715 1.8516e-11
-0.5673 1.6079000000000002e-11
-0.5631 1.4915e-11
-0.5589999999999999 1.3986e-11
-0.5548000000000001 1.2602e-11
-0.5506 1.1672e-11
-0.5465 1.0562e-11
-0.5423 9.873e-12
-0.5381 9.122000000000001e-12
-0.5339 8.135000000000001e-12
-0.5298 7.732000000000001e-12
-0.5256000000000001 7.0649999999999995e-12
-0.5214 6.509000000000001e-12
-0.5173 6.144999999999999e-12
-0.5131 6.176e-12
-0.5089 5.9579999999999995e-12
-0.5047 5.587000000000001e-12
-0.5006 5.258e-12
-0.4964 4.690999999999999e-12
-0.4922 4.485e-12
-0.4881 4.4110000000000005e-12
-0.4839 4.477e-12
-0.4797 4.394e-12
-0.4755 4.21e-12
-0.4714 4.152e-12
-0.4672 4.1799999999999996e-12
-0.46299999999999997 4.0610000000000006e-12
-0.4589 3.861000000000001e-12
-0.4547000000000001 3.952e-12
-0.4505 3.8850000000000005e-12
-0.4463 3.878999999999999e-12
-0.4422 3.669000000000001e-12
-0.43799999999999994 3.7560000000000006e-12
-0.4338 3.747e-12
-0.4297 3.708e-12
-0.4255 3.724000000000001e-12
-0.4213 3.690000000000001e-12
-0.4171 3.688e-12
-0.413 3.6510000000000005e-12
-0.4088 3.548e-12
-0.4046 3.592000000000001e-12
-0.4005 3.550000000000001e-12
-0.3963 3.611e-12
-0.3921 3.5360000000000007e-12
-0.3879 3.522e-12
-0.3838 3.493e-12
-0.3796 3.603e-12
-0.3754 3.556e-12
-0.3713 3.529000000000001e-12
-0.3671 3.523e-12
-0.3629 3.5299999999999997e-12
-0.3587 3.6269999999999998e-12
-0.3546 3.535e-12
-0.3504 3.6310000000000006e-12
-0.3462 3.5900000000000007e-12
-0.3421 3.5599999999999998e-12
-0.33790000000000003 3.657e-12
-0.3337 3.633e-12
-0.3295 3.733e-12
-0.3254 3.658e-12
-0.32120000000000004 3.7060000000000006e-12
-0.317 3.737e-12
-0.3129 3.7800000000000005e-12
-0.30870000000000003 3.7720000000000005e-12
-0.3045 3.796e-12
-0.3003 3.904e-12
-0.2962 3.865e-12
-0.29200000000000004 3.895000000000001e-12
-0.2878 3.982000000000001e-12
-0.2837 3.9560000000000005e-12
-0.2795 3.921000000000001e-12
-0.2753 4.067e-12
-0.2711 3.9770000000000005e-12
-0.267 3.963e-12
-0.26280000000000003 4.046e-12
-0.2586 4.1169999999999995e-12
-0.2545 4.096999999999999e-12
-0.2503 4.193e-12
-0.2461 4.166000000000001e-12
-0.2419 4.2270000000000005e-12
-0.2378 4.226e-12
-0.2336 4.276e-12
-0.2294 4.289e-12
-0.2253 4.368000000000001e-12
-0.2211 4.229000000000001e-12
-0.2169 4.36e-12
-0.2127 4.4900000000000005e-12
-0.2086 4.3879999999999995e-12
-0.2044 4.4139999999999996e-12
-0.2002 4.548999999999999e-12
-0.1961 4.444e-12
-0.1919 4.669999999999999e-12
-0.1877 4.599e-12
-0.1835 4.6479999999999996e-12
-0.1794 4.6299999999999995e-12
-0.1752 4.693000000000001e-12
-0.171 4.6710000000000006e-12
-0.16690000000000002 4.699e-12
-0.1627 4.753999999999999e-12
-0.1585 4.809e-12
-0.15430000000000002 4.748999999999999e-12
-0.1502 4.831000000000001e-12
-0.14600000000000002 4.886000000000001e-12
-0.1418 4.9189999999999995e-12
-0.13770000000000002 4.893e-12
-0.1335 4.925e-12
-0.1293 4.935e-12
-0.12510000000000002 5.108e-12
-0.121 5.038e-12
-0.1168 4.996e-12
-0.1126 5.087e-12
-0.1085 5.127e-12
-0.1043 5.168000000000001e-12
-0.1001 5.239000000000001e-12
-0.0959 5.224e-12
-0.0918 5.153999999999999e-12
-0.0876 5.3210000000000005e-12
-0.0834 5.287999999999999e-12
-0.07930000000000001 5.329e-12
-0.0751 5.415000000000001e-12
-0.0709 5.394000000000001e-12
-0.06670000000000001 5.470000000000001e-12
-0.0626 5.541000000000001e-12
-0.0584 5.557000000000001e-12
-0.054200000000000005 5.597999999999999e-12
-0.050100000000000006 5.757000000000001e-12
-0.0459 5.725000000000001e-12
-0.0417 5.8020000000000005e-12
-0.0375 5.951000000000001e-12
-0.0334 6.06e-12
-0.0292 6.144999999999999e-12
-0.025 6.2759999999999995e-12
-0.0209 6.348000000000001e-12
-0.0167 6.5250000000000006e-12
-0.0125 6.787000000000002e-12
-0.0083 6.8439999999999995e-12
-0.004200000000000001 7.097000000000001e-12
0.0 7.294e-12
