0.0 4.641e-12
-0.0041 2.884e-12
-0.0081 2.2840000000000004e-12
-0.0122 1.947e-12
-0.0162 1.626e-12
-0.0203 1.3630000000000001e-12
-0.0243 1.179e-12
-0.0284 9.56e-13
-0.0325 7.65e-13
-0.036500000000000005 5.470000000000001e-13
-0.0406 5.22e-13
-0.0446 3.7900000000000015e-13
-0.0487 2.2500000000000005e-13
-0.0527 6.999999999999999e-15
-0.0568 1.3700000000000002e-13
-0.0609 8.7e-14
-0.0649 2.7700000000000003e-13
-0.069 4.24e-13
-0.07300000000000001 4.2e-13
-0.0771 5.010000000000001e-13
-0.0811 5.330000000000001e-13
-0.0852 5.920000000000001e-13
-0.0893 6.400000000000001e-13
-0.0933 7.46e-13
-0.0974 8.15e-13
-0.1014 8.520000000000002e-13
-0.1055 9.49e-13
-0.1095 8.93e-13
-0.1136 1.032e-12
-0.1177 1.023e-12
-0.1217 1.0949999999999999e-12
-0.1258 1.224e-12
-0.1298 1.085e-12
-0.13390000000000002 1.2139999999999999e-12
-0.1379 1.2340000000000002e-12
-0.14200000000000002 1.275e-12
-0.1461 1.3559999999999999e-12
-0.1501 1.3680000000000002e-12
-0.1542 1.3090000000000002e-12
-0.1582 1.4090000000000002e-12
-0.1623 1.394e-12
-0.1663 1.5119999999999998e-12
-0.1704 1.464e-12
-0.17450000000000002 1.5410000000000002e-12
-0.17850000000000002 1.5640000000000002e-12
-0.1826 1.53e-12
-0.1866 1.6249999999999998e-12
-0.1907 1.6019999999999998e-12
-0.1947 1.6390000000000004e-12
-0.1988 1.6540000000000004e-12
-0.2029 1.6600000000000004e-12
-0.2069 1.694e-12
-0.211 1.728e-12
-0.215 1.7770000000000004e-12
-0.2191 1.72e-12
-0.2231 1.6370000000000002e-12
-0.2272 1.7310000000000004e-12
-0.2313 1.786e-12
-0.2353 1.837e-12
-0.2394 1.808e-12
-0.2434 1.9200000000000003e-12
-0.24750000000000005 1.8349999999999998e-12
-0.2515 1.935e-12
-0.2556 1.8660000000000003e-12
-0.2597 1.8759999999999997e-12
-0.2637 1.825e-12
-0.26780000000000004 2.0040000000000003e-12
-0.2718 2.0380000000000004e-12
-0.27590000000000003 1.9410000000000003e-12
-0.27990000000000004 1.98e-12
-0.28400000000000003 2.14e-12
-0.2881 2.0340000000000004e-12
-0.2921 2.046e-12
-0.2962 2.159e-12
-0.3002 2.1210000000000004e-12
-0.3043 2.1920000000000004e-12
-0.3083 2.2230000000000005e-12
-0.3124 2.251e-12
-0.3165 2.2309999999999997e-12
-0.3205 2.3300000000000004e-12
-0.3246 2.3149999999999997e-12
-0.3286 2.3439999999999997e-12
-0.3327 2.3460000000000003e-12
-0.3367 2.423e-12
-0.3408 2.406e-12
-0.34490000000000004 2.4670000000000003e-12
-0.34890000000000004 2.474e-12
-0.35300000000000004 2.5840000000000003e-12
-0.35700000000000004 2.5090000000000003e-12
-0.3611 2.528e-12
-0.3651 2.6800000000000003e-12
-0.3692 2.6770000000000004e-12
-0.3733 2.7110000000000005e-12
-0.3773 2.7689999999999996e-12
-0.3814 2.9e-12
-0.3854 2.887e-12
-0.3895 2.895e-12
-0.3935 3.005e-12
-0.3976 3.0190000000000004e-12
-0.4017 3.1440000000000003e-12
-0.4057 3.1110000000000004e-12
-0.4098 3.2190000000000003e-12
-0.4138 3.213e-12
-0.4179 3.2250000000000005e-12
-0.4219 3.1860000000000004e-12
-0.4260000000000001 3.2770000000000007e-12
-0.4301 3.3680000000000006e-12
-0.4341 3.3910000000000008e-12
-0.4382 3.289e-12
-0.4422 3.3480000000000007e-12
-0.4463 3.1579999999999997e-12
-0.4503 3.0530000000000004e-12
-0.4544 2.8190000000000004e-12
-0.4585 2.7060000000000004e-12
-0.4625 2.3670000000000003e-12
-0.4666 2.5930000000000004e-12
-0.4706 2.0240000000000003e-12
-0.4747 2.13e-12
-0.4787 1.5850000000000002e-12
-0.4828 1.131e-12
-0.4869 7.86e-13
-0.4909 4.77e-13
-0.4950000000000001 7.54e-13
-0.499 9.58e-13
-0.5031 2.763e-12
-0.5071 3.779e-12
-0.5112 3.742e-12
-0.5153 4.53e-12
-0.5193 6.0999999999999995e-12
-0.5234 7.0110000000000015e-12
-0.5274 9.24e-12
-0.5315 1.0364e-11
-0.5355 1.2345000000000002e-11
-0.5396000000000001 1.4637e-11
-0.5437000000000001 1.6812000000000002e-11
-0.5477000000000001 1.8878000000000003e-11
-0.5518000000000001 2.3235e-11
-0.5558000000000001 2.6746999999999998e-11
-0.5599000000000001 3.1933000000000006e-11
-0.5639000000000001 3.4980000000000005e-11
-0.5680000000000001 3.9658e-11
-0.5721 5.0020000000000005e-11
-0.5761000000000001 5.0277999999999996e-11
-0.5802 5.918199999999999e-11
-0.5842 6.419700000000001e-11
-0.5883 7.2845e-11
-0.5923 8.1708e-11
-0.5964 9.130200000000001e-11
-0.6005 1.01327e-10
-0.6045 1.14937e-10
-0.6086 1.3756400000000002e-10
-0.6126 1.47445e-10
-0.6167 1.6487499999999999e-10
-0.6207 1.81985e-10
-0.6248 2.0545300000000002e-10
-0.6289 2.3376100000000004e-10
-0.6329 2.52484e-10
-0.637 2.7882599999999997e-10
-0.6409999999999999 3.12475e-10
-0.6451 3.4667800000000007e-10
-0.6491 3.8503400000000005e-10
-0.6532 4.1045599999999996e-10
-0.6573 4.7472e-10
-0.6613 5.098390000000001e-10
-0.6654 5.6657e-10
-0.6694 6.50219e-10
-0.6735 6.970870000000001e-10
-0.6775 8.070049999999999e-10
-0.6816 8.8011e-10
-0.6857000000000001 9.08017e-10
-0.6897 1.0168939999999998e-09
-0.6938000000000001 1.09647e-09
-0.6978000000000001 1.24426e-09
-0.7019000000000001 1.39046e-09
-0.7059000000000001 1.44311e-09
-0.7100000000000001 1.55086e-09
-0.7100000000000001 1.4782899999999999e-09
-0.7059000000000001 1.3781799999999999e-09
-0.7019000000000001 1.27969e-09
-0.6978000000000001 1.15651e-09
-0.6938000000000001 1.0716500000000001e-09
-0.6897 9.9535e-10
-0.6857000000000001 8.78658e-10
-0.6816 7.82473e-10
-0.6775 7.291979999999999e-10
-0.6735 6.229480000000001e-10
-0.6694 5.807950000000001e-10
-0.6654 5.359230000000001e-10
-0.6613 4.86824e-10
-0.6573 4.2378699999999997e-10
-0.6532 4.06962e-10
-0.6491 3.61298e-10
-0.6451 3.1498000000000003e-10
-0.6409999999999999 2.9950599999999995e-10
-0.637 2.56358e-10
-0.6329 2.3835800000000003e-10
-0.6289 2.09309e-10
-0.6248 1.88868e-10
-0.6207 1.73929e-10
-0.6167 1.5483000000000002e-10
-0.6126 1.40518e-10
-0.6086 1.2790600000000002e-10
-0.6045 1.16723e-10
-0.6005 1.0268799999999998e-10
-0.5964 9.109899999999999e-11
-0.5923 8.2064e-11
-0.5883 7.2332e-11
-0.5842 6.349200000000001e-11
-0.5802 5.646000000000001e-11
-0.5761000000000001 5.0434e-11
-0.5721 4.5445e-11
-0.5680000000000001 4.1348e-11
-0.5639000000000001 3.7207999999999996e-11
-0.5599000000000001 3.3816000000000004e-11
-0.5558000000000001 3.0346e-11
-0.5518000000000001 2.7663e-11
-0.5477000000000001 2.4648e-11
-0.5437000000000001 2.207e-11
-0.5396000000000001 1.9972e-11
-0.5355 1.7823000000000003e-11
-0.5315 1.6108000000000002e-11
-0.5274 1.4729e-11
-0.5234 1.3253e-11
-0.5193 1.2147000000000001e-11
-0.5153 1.1387e-11
-0.5112 1.0287e-11
-0.5071 9.53e-12
-0.5031 8.523e-12
-0.499 8.11e-12
-0.4950000000000001 7.405000000000001e-12
-0.4909 7.016000000000002e-12
-0.4869 6.542000000000001e-12
-0.4828 6.1919999999999995e-12
-0.4787 5.7709999999999995e-12
-0.4747 5.706e-12
-0.4706 5.3239999999999995e-12
-0.4666 5.3760000000000005e-12
-0.4625 5.094000000000001e-12
-0.4585 4.991e-12
-0.4544 4.861e-12
-0.4503 4.626000000000001e-12
-0.4463 4.676000000000001e-12
-0.4422 4.536e-12
-0.4382 4.341e-12
-0.4341 4.382999999999999e-12
-0.4301 4.321000000000001e-12
-0.4260000000000001 4.314e-12
-0.4219 4.212e-12
-0.4179 4.065e-12
-0.4138 4e-12
-0.4098 4.0089999999999996e-12
-0.4057 3.996e-12
-0.4017 3.932000000000001e-12
-0.3976 3.868e-12
-0.3935 3.915e-12
-0.3895 3.892e-12
-0.3854 3.9770000000000005e-12
-0.3814 3.929e-12
-0.3773 3.862e-12
-0.3733 3.963e-12
-0.3692 3.937000000000001e-12
-0.3651 4.001999999999999e-12
-0.3611 3.905e-12
-0.35700000000000004 3.973e-12
-0.35300000000000004 3.855e-12
-0.34890000000000004 3.942e-12
-0.34490000000000004 3.8900000000000006e-12
-0.3408 3.953000000000001e-12
-0.3367 3.85e-12
-0.3327 3.895000000000001e-12
-0.3286 3.833e-12
-0.3246 3.978e-12
-0.3205 3.853000000000001e-12
-0.3165 3.796e-12
-0.3124 3.847e-12
-0.3083 3.767e-12
-0.3043 3.771000000000001e-12
-0.3002 3.857e-12
-0.2962 3.767e-12
-0.2921 3.808000000000001e-12
-0.2881 3.867e-12
-0.28400000000000003 3.937000000000001e-12
-0.27990000000000004 3.792e-12
-0.27590000000000003 3.8270000000000006e-12
-0.2718 3.874000000000001e-12
-0.26780000000000004 3.836999999999999e-12
-0.2637 3.97e-12
-0.2597 3.931e-12
-0.2556 3.8640000000000005e-12
-0.2515 3.971e-12
-0.24750000000000005 3.981e-12
-0.2434 3.963e-12
-0.2394 4.001e-12
-0.2353 4.0089999999999996e-12
-0.2313 4.03e-12
-0.2272 4.028e-12
-0.2231 4.050000000000001e-12
-0.2191 4.112e-12
-0.215 4.026e-12
-0.211 4.068000000000001e-12
-0.2069 4.151e-12
-0.2029 4.0560000000000005e-12
-0.1988 4.1169999999999995e-12
-0.1947 4.066000000000001e-12
-0.1907 4.146e-12
-0.1866 4.088e-12
-0.1826 4.318e-12
-0.17850000000000002 4.197e-12
-0.17450000000000002 4.1820000000000006e-12
-0.1704 4.239e-12
-0.1663 4.276e-12
-0.1623 4.1480000000000005e-12
-0.1582 4.2539999999999994e-12
-0.1542 4.2740000000000006e-12
-0.1501 4.239e-12
-0.1461 4.315e-12
-0.14200000000000002 4.394e-12
-0.1379 4.283e-12
-0.13390000000000002 4.336e-12
-0.1298 4.4110000000000005e-12
-0.1258 4.357e-12
-0.1217 4.4089999999999995e-12
-0.1177 4.4299999999999995e-12
-0.1136 4.498e-12
-0.1095 4.528000000000001e-12
-0.1055 4.543e-12
-0.1014 4.4450000000000005e-12
-0.0974 4.525e-12
-0.0933 4.525e-12
-0.0893 4.569e-12
-0.0852 4.6429999999999995e-12
-0.0811 4.6290000000000006e-12
-0.0771 4.5870000000000005e-12
-0.07300000000000001 4.7210000000000006e-12
-0.069 4.684000000000001e-12
-0.0649 4.7580000000000005e-12
-0.0609 4.733000000000001e-12
-0.0568 4.891e-12
-0.0527 5.003999999999999e-12
-0.0487 4.969999999999999e-12
-0.0446 5.0790000000000005e-12
-0.0406 5.026000000000001e-12
-0.036500000000000005 5.24e-12
-0.0325 5.2420000000000005e-12
-0.0284 5.370000000000001e-12
-0.0243 5.5340000000000005e-12
-0.0203 5.551e-12
-0.0162 5.665000000000001e-12
-0.0122 5.8129999999999996e-12
-0.0081 6.0650000000000005e-12
-0.0041 6.0780000000000006e-12
0.0 6.343000000000001e-12
